\relax 
\providecommand\hyper@newdestlabel[2]{}
\providecommand\HyperFirstAtBeginDocument{\AtBeginDocument}
\HyperFirstAtBeginDocument{\ifx\hyper@anchor\@undefined
\global\let\oldcontentsline\contentsline
\gdef\contentsline#1#2#3#4{\oldcontentsline{#1}{#2}{#3}}
\global\let\oldnewlabel\newlabel
\gdef\newlabel#1#2{\newlabelxx{#1}#2}
\gdef\newlabelxx#1#2#3#4#5#6{\oldnewlabel{#1}{{#2}{#3}}}
\AtEndDocument{\ifx\hyper@anchor\@undefined
\let\contentsline\oldcontentsline
\let\newlabel\oldnewlabel
\fi}
\fi}
\global\let\hyper@last\relax 
\gdef\HyperFirstAtBeginDocument#1{#1}
\providecommand\HyField@AuxAddToFields[1]{}
\providecommand\HyField@AuxAddToCoFields[2]{}
\providecommand \oddpage@label [2]{}
\@writefile{toc}{\@ifundefined {etoctocstyle}{\let \etoc@startlocaltoc \@gobble \let \etoc@settocdepth \@gobble \let \etoc@depthtag \@gobble \let \etoc@setlocaltop \@gobble }{}}
\@writefile{toc}{\contentsline {section}{\numberline {1}Main Page}{1}{section.1}\protected@file@percent }
\newlabel{index}{{1}{1}{Main Page}{section.1}{}}
\newlabel{index_md_README}{{1}{1}{Main Page}{section.1}{}}
\@writefile{toc}{\contentsline {section}{\numberline {2}Class Index}{1}{section.2}\protected@file@percent }
\@writefile{toc}{\contentsline {subsection}{\numberline {2.1}Class List}{1}{subsection.2.1}\protected@file@percent }
\@writefile{toc}{\contentsline {section}{\numberline {3}File Index}{1}{section.3}\protected@file@percent }
\@writefile{toc}{\contentsline {subsection}{\numberline {3.1}File List}{1}{subsection.3.1}\protected@file@percent }
\@writefile{toc}{\contentsline {section}{\numberline {4}Class Documentation}{2}{section.4}\protected@file@percent }
\@writefile{toc}{\contentsline {subsection}{\numberline {4.1}namespace\discretionary {\mbox  {\scriptsize  $\hookleftarrow  $}}{}{}\_\discretionary {\mbox  {\scriptsize  $\hookleftarrow  $}}{}{}branch Struct Reference}{2}{subsection.4.1}\protected@file@percent }
\newlabel{structnamespace__branch}{{4.1}{2}{namespace\+\_\+branch Struct Reference}{subsection.4.1}{}}
\@writefile{toc}{\contentsline {subsubsection}{\numberline {4.1.1}Detailed Description}{2}{subsubsection.4.1.1}\protected@file@percent }
\@writefile{toc}{\contentsline {subsubsection}{\numberline {4.1.2}Member Data Documentation}{3}{subsubsection.4.1.2}\protected@file@percent }
\newlabel{structnamespace__branch_a3fdf464caa3f3ec88aefb127bf67ff7f}{{4.1.2}{3}{Member Data Documentation}{subsubsection.4.1.2}{}}
\@writefile{toc}{\contentsline {paragraph}{\numberline {4.1.2.1}n}{3}{paragraph.4.1.2.1}\protected@file@percent }
\newlabel{structnamespace__branch_a373cd9c8b548f1b9f27856ae646f743a}{{4.1.2.1}{3}{\texorpdfstring {n}{n}}{paragraph.4.1.2.1}{}}
\@writefile{toc}{\contentsline {paragraph}{\numberline {4.1.2.2}name}{3}{paragraph.4.1.2.2}\protected@file@percent }
\newlabel{structnamespace__branch_aff6a482c6ea4c2522082ddd61fc9c6aa}{{4.1.2.2}{3}{\texorpdfstring {name}{name}}{paragraph.4.1.2.2}{}}
\@writefile{toc}{\contentsline {paragraph}{\numberline {4.1.2.3}terms}{3}{paragraph.4.1.2.3}\protected@file@percent }
\@writefile{toc}{\contentsline {subsection}{\numberline {4.2}namespace\discretionary {\mbox  {\scriptsize  $\hookleftarrow  $}}{}{}\_\discretionary {\mbox  {\scriptsize  $\hookleftarrow  $}}{}{}tree Struct Reference}{3}{subsection.4.2}\protected@file@percent }
\newlabel{structnamespace__tree}{{4.2}{3}{namespace\+\_\+tree Struct Reference}{subsection.4.2}{}}
\@writefile{toc}{\contentsline {subsubsection}{\numberline {4.2.1}Detailed Description}{4}{subsubsection.4.2.1}\protected@file@percent }
\@writefile{toc}{\contentsline {subsubsection}{\numberline {4.2.2}Member Data Documentation}{4}{subsubsection.4.2.2}\protected@file@percent }
\newlabel{structnamespace__tree_ac45020330c594c524d32ed1bbd52ec25}{{4.2.2}{4}{Member Data Documentation}{subsubsection.4.2.2}{}}
\@writefile{toc}{\contentsline {paragraph}{\numberline {4.2.2.1}curr\_term}{4}{paragraph.4.2.2.1}\protected@file@percent }
\newlabel{structnamespace__tree_a4d49c004838e77cad51028255be0fae8}{{4.2.2.1}{4}{\texorpdfstring {curr\_term}{curr\_term}}{paragraph.4.2.2.1}{}}
\@writefile{toc}{\contentsline {paragraph}{\numberline {4.2.2.2}level}{4}{paragraph.4.2.2.2}\protected@file@percent }
\newlabel{structnamespace__tree_a2f8d62bc9ad2483a69a5005d36534945}{{4.2.2.2}{4}{\texorpdfstring {level}{level}}{paragraph.4.2.2.2}{}}
\@writefile{toc}{\contentsline {paragraph}{\numberline {4.2.2.3}parents}{4}{paragraph.4.2.2.3}\protected@file@percent }
\@writefile{toc}{\contentsline {subsection}{\numberline {4.3}term Struct Reference}{4}{subsection.4.3}\protected@file@percent }
\newlabel{structterm}{{4.3}{4}{term Struct Reference}{subsection.4.3}{}}
\@writefile{toc}{\contentsline {subsubsection}{\numberline {4.3.1}Detailed Description}{4}{subsubsection.4.3.1}\protected@file@percent }
\@writefile{toc}{\contentsline {subsubsection}{\numberline {4.3.2}Member Data Documentation}{4}{subsubsection.4.3.2}\protected@file@percent }
\newlabel{structterm_aa17667d3237b5d860bd45d24bd61fec4}{{4.3.2}{4}{Member Data Documentation}{subsubsection.4.3.2}{}}
\@writefile{toc}{\contentsline {paragraph}{\numberline {4.3.2.1}id}{5}{paragraph.4.3.2.1}\protected@file@percent }
\newlabel{structterm_a1829d79620462d7477769636cf8c2c9a}{{4.3.2.1}{5}{\texorpdfstring {id}{id}}{paragraph.4.3.2.1}{}}
\@writefile{toc}{\contentsline {paragraph}{\numberline {4.3.2.2}name}{5}{paragraph.4.3.2.2}\protected@file@percent }
\newlabel{structterm_a5ae8b435de44d0dcc2797ef8a45367e1}{{4.3.2.2}{5}{\texorpdfstring {name}{name}}{paragraph.4.3.2.2}{}}
\@writefile{toc}{\contentsline {paragraph}{\numberline {4.3.2.3}nmspc}{5}{paragraph.4.3.2.3}\protected@file@percent }
\newlabel{structterm_a4a905db6ead0a6b858f4707ed3f0f262}{{4.3.2.3}{5}{\texorpdfstring {nmspc}{nmspc}}{paragraph.4.3.2.3}{}}
\@writefile{toc}{\contentsline {paragraph}{\numberline {4.3.2.4}no\_parents}{5}{paragraph.4.3.2.4}\protected@file@percent }
\newlabel{structterm_aca543f6854463177f8e96e4730f0ddee}{{4.3.2.4}{5}{\texorpdfstring {no\_parents}{no\_parents}}{paragraph.4.3.2.4}{}}
\@writefile{toc}{\contentsline {paragraph}{\numberline {4.3.2.5}parents}{5}{paragraph.4.3.2.5}\protected@file@percent }
\@writefile{toc}{\contentsline {subsection}{\numberline {4.4}trmarr Struct Reference}{5}{subsection.4.4}\protected@file@percent }
\newlabel{structtrmarr}{{4.4}{5}{trmarr Struct Reference}{subsection.4.4}{}}
\@writefile{toc}{\contentsline {subsubsection}{\numberline {4.4.1}Detailed Description}{6}{subsubsection.4.4.1}\protected@file@percent }
\@writefile{toc}{\contentsline {subsubsection}{\numberline {4.4.2}Member Data Documentation}{6}{subsubsection.4.4.2}\protected@file@percent }
\newlabel{structtrmarr_ab5e4142d68348ce3ed2e24c0a5694fc0}{{4.4.2}{6}{Member Data Documentation}{subsubsection.4.4.2}{}}
\@writefile{toc}{\contentsline {paragraph}{\numberline {4.4.2.1}count}{6}{paragraph.4.4.2.1}\protected@file@percent }
\newlabel{structtrmarr_ae29709b725290c66487f9161dc5565cd}{{4.4.2.1}{6}{\texorpdfstring {count}{count}}{paragraph.4.4.2.1}{}}
\@writefile{toc}{\contentsline {paragraph}{\numberline {4.4.2.2}namespaces}{6}{paragraph.4.4.2.2}\protected@file@percent }
\newlabel{structtrmarr_af041688e27b0ae755fbd2ab90025a2c6}{{4.4.2.2}{6}{\texorpdfstring {namespaces}{namespaces}}{paragraph.4.4.2.2}{}}
\@writefile{toc}{\contentsline {paragraph}{\numberline {4.4.2.3}no\_terms}{6}{paragraph.4.4.2.3}\protected@file@percent }
\newlabel{structtrmarr_ac4e71b9cd5767d41934f90f0321a9276}{{4.4.2.3}{6}{\texorpdfstring {no\_terms}{no\_terms}}{paragraph.4.4.2.3}{}}
\@writefile{toc}{\contentsline {paragraph}{\numberline {4.4.2.4}terms}{6}{paragraph.4.4.2.4}\protected@file@percent }
\@writefile{toc}{\contentsline {section}{\numberline {5}File Documentation}{6}{section.5}\protected@file@percent }
\@writefile{toc}{\contentsline {subsection}{\numberline {5.1}R\discretionary {\mbox  {\scriptsize  $\hookleftarrow  $}}{}{}E\discretionary {\mbox  {\scriptsize  $\hookleftarrow  $}}{}{}A\discretionary {\mbox  {\scriptsize  $\hookleftarrow  $}}{}{}D\discretionary {\mbox  {\scriptsize  $\hookleftarrow  $}}{}{}M\discretionary {\mbox  {\scriptsize  $\hookleftarrow  $}}{}{}E.\discretionary {\mbox  {\scriptsize  $\hookleftarrow  $}}{}{}md File Reference}{6}{subsection.5.1}\protected@file@percent }
\newlabel{README_8md}{{5.1}{6}{R\+E\+A\+D\+M\+E.\+md File Reference}{subsection.5.1}{}}
\@writefile{toc}{\contentsline {subsection}{\numberline {5.2}src/cli/arguments.cpp File Reference}{6}{subsection.5.2}\protected@file@percent }
\newlabel{arguments_8cpp}{{5.2}{6}{src/cli/arguments.cpp File Reference}{subsection.5.2}{}}
\gdef \LT@i {\LT@entry 
    {3}{54.73018pt}\LT@entry 
    {3}{400.51393pt}}
\@writefile{toc}{\contentsline {subsubsection}{\numberline {5.2.1}Function Documentation}{7}{subsubsection.5.2.1}\protected@file@percent }
\newlabel{arguments_8cpp_acff08e8462c259ac7d182475e53f95d0}{{5.2.1}{7}{Function Documentation}{subsubsection.5.2.1}{}}
\@writefile{toc}{\contentsline {paragraph}{\numberline {5.2.1.1}choose\_nmspc()}{7}{paragraph.5.2.1.1}\protected@file@percent }
\gdef \LT@ii {\LT@entry 
    {3}{65.67398pt}\LT@entry 
    {3}{389.06024pt}}
\newlabel{arguments_8cpp_a97ee70a8770dc30d06c744b24eb2fcfc}{{5.2.1.1}{8}{\texorpdfstring {choose\_nmspc()}{choose\_nmspc()}}{figure.caption.10}{}}
\@writefile{toc}{\contentsline {paragraph}{\numberline {5.2.1.2}help()}{8}{paragraph.5.2.1.2}\protected@file@percent }
\newlabel{arguments_8cpp_abf621bc9748753b51fb9ce13c3c644ba}{{5.2.1.2}{8}{\texorpdfstring {help()}{help()}}{figure.caption.11}{}}
\@writefile{toc}{\contentsline {paragraph}{\numberline {5.2.1.3}print\_all()}{8}{paragraph.5.2.1.3}\protected@file@percent }
\@writefile{toc}{\contentsline {subsection}{\numberline {5.3}src/cli/arguments.h File Reference}{9}{subsection.5.3}\protected@file@percent }
\newlabel{arguments_8h}{{5.3}{9}{src/cli/arguments.h File Reference}{subsection.5.3}{}}
\@writefile{toc}{\contentsline {subsubsection}{\numberline {5.3.1}Function Documentation}{9}{subsubsection.5.3.1}\protected@file@percent }
\newlabel{arguments_8h_acff08e8462c259ac7d182475e53f95d0}{{5.3.1}{9}{Function Documentation}{subsubsection.5.3.1}{}}
\gdef \LT@iii {\LT@entry 
    {3}{54.73018pt}\LT@entry 
    {3}{400.51393pt}}
\@writefile{toc}{\contentsline {paragraph}{\numberline {5.3.1.1}choose\_nmspc()}{10}{paragraph.5.3.1.1}\protected@file@percent }
\newlabel{arguments_8h_a97ee70a8770dc30d06c744b24eb2fcfc}{{5.3.1.1}{10}{\texorpdfstring {choose\_nmspc()}{choose\_nmspc()}}{figure.caption.16}{}}
\@writefile{toc}{\contentsline {paragraph}{\numberline {5.3.1.2}help()}{10}{paragraph.5.3.1.2}\protected@file@percent }
\newlabel{arguments_8h_abf621bc9748753b51fb9ce13c3c644ba}{{5.3.1.2}{10}{\texorpdfstring {help()}{help()}}{figure.caption.17}{}}
\@writefile{toc}{\contentsline {paragraph}{\numberline {5.3.1.3}print\_all()}{10}{paragraph.5.3.1.3}\protected@file@percent }
\gdef \LT@iv {\LT@entry 
    {3}{65.67398pt}\LT@entry 
    {3}{389.06024pt}}
\@writefile{toc}{\contentsline {subsection}{\numberline {5.4}src/cli/help.txt File Reference}{11}{subsection.5.4}\protected@file@percent }
\newlabel{help_8txt}{{5.4}{11}{src/cli/help.txt File Reference}{subsection.5.4}{}}
\@writefile{toc}{\contentsline {subsection}{\numberline {5.5}src/main.cpp File Reference}{11}{subsection.5.5}\protected@file@percent }
\newlabel{main_8cpp}{{5.5}{11}{src/main.cpp File Reference}{subsection.5.5}{}}
\gdef \LT@v {\LT@entry 
    {3}{44.80347pt}\LT@entry 
    {3}{80.92459pt}}
\@writefile{toc}{\contentsline {subsubsection}{\numberline {5.5.1}Function Documentation}{12}{subsubsection.5.5.1}\protected@file@percent }
\newlabel{main_8cpp_a3c04138a5bfe5d72780bb7e82a18e627}{{5.5.1}{12}{Function Documentation}{subsubsection.5.5.1}{}}
\@writefile{toc}{\contentsline {paragraph}{\numberline {5.5.1.1}main()}{12}{paragraph.5.5.1.1}\protected@file@percent }
\@writefile{toc}{\contentsline {subsection}{\numberline {5.6}src/parse/help\discretionary {\mbox  {\scriptsize  $\hookleftarrow  $}}{}{}\_\discretionary {\mbox  {\scriptsize  $\hookleftarrow  $}}{}{}funcs.cpp File Reference}{12}{subsection.5.6}\protected@file@percent }
\newlabel{help__funcs_8cpp}{{5.6}{12}{src/parse/help\+\_\+funcs.cpp File Reference}{subsection.5.6}{}}
\@writefile{toc}{\contentsline {subsubsection}{\numberline {5.6.1}Macro Definition Documentation}{13}{subsubsection.5.6.1}\protected@file@percent }
\newlabel{help__funcs_8cpp_a72a591cf0a96cf23c63df5c78712dabe}{{5.6.1}{13}{Macro Definition Documentation}{subsubsection.5.6.1}{}}
\gdef \LT@vi {\LT@entry 
    {3}{68.82402pt}\LT@entry 
    {3}{340.38037pt}}
\@writefile{toc}{\contentsline {paragraph}{\numberline {5.6.1.1}BUFSIZ}{14}{paragraph.5.6.1.1}\protected@file@percent }
\@writefile{toc}{\contentsline {subsubsection}{\numberline {5.6.2}Function Documentation}{14}{subsubsection.5.6.2}\protected@file@percent }
\newlabel{help__funcs_8cpp_a8beb54dba90db526116b278679b21987}{{5.6.2}{14}{Function Documentation}{subsubsection.5.6.2}{}}
\@writefile{toc}{\contentsline {paragraph}{\numberline {5.6.2.1}add\_id()}{14}{paragraph.5.6.2.1}\protected@file@percent }
\newlabel{help__funcs_8cpp_ac4373423acc6b82d0cea816ff4cd52d0}{{5.6.2.1}{14}{\texorpdfstring {add\_id()}{add\_id()}}{figure.caption.26}{}}
\@writefile{toc}{\contentsline {paragraph}{\numberline {5.6.2.2}add\_is\_a()}{14}{paragraph.5.6.2.2}\protected@file@percent }
\newlabel{help__funcs_8cpp_aa167d1649e46deb401c410410a0a9498}{{5.6.2.2}{14}{\texorpdfstring {add\_is\_a()}{add\_is\_a()}}{paragraph.5.6.2.2}{}}
\@writefile{toc}{\contentsline {paragraph}{\numberline {5.6.2.3}add\_names()}{14}{paragraph.5.6.2.3}\protected@file@percent }
\newlabel{help__funcs_8cpp_ae4bc4442dd9610450596a79482e9eacb}{{5.6.2.3}{14}{\texorpdfstring {add\_names()}{add\_names()}}{paragraph.5.6.2.3}{}}
\@writefile{toc}{\contentsline {paragraph}{\numberline {5.6.2.4}cat\_cmp()}{14}{paragraph.5.6.2.4}\protected@file@percent }
\newlabel{help__funcs_8cpp_afef63b97e601c0510ea31143c51a1c39}{{5.6.2.4}{15}{\texorpdfstring {cat\_cmp()}{cat\_cmp()}}{figure.caption.28}{}}
\@writefile{toc}{\contentsline {paragraph}{\numberline {5.6.2.5}get\_nmspc()}{15}{paragraph.5.6.2.5}\protected@file@percent }
\@writefile{toc}{\contentsline {subsubsection}{\numberline {5.6.3}Variable Documentation}{15}{subsubsection.5.6.3}\protected@file@percent }
\newlabel{help__funcs_8cpp_aeffa2f0815ce90fecbda9aac199143db}{{5.6.3}{15}{Variable Documentation}{subsubsection.5.6.3}{}}
\@writefile{toc}{\contentsline {paragraph}{\numberline {5.6.3.1}id}{15}{paragraph.5.6.3.1}\protected@file@percent }
\newlabel{help__funcs_8cpp_ace158b65d34ad7f7723a5fdac5faad19}{{5.6.3.1}{15}{\texorpdfstring {id}{id}}{paragraph.5.6.3.1}{}}
\@writefile{toc}{\contentsline {paragraph}{\numberline {5.6.3.2}is\_a}{15}{paragraph.5.6.3.2}\protected@file@percent }
\newlabel{help__funcs_8cpp_a9053daf118dca3c76341ca3a2c81d742}{{5.6.3.2}{15}{\texorpdfstring {is\_a}{is\_a}}{paragraph.5.6.3.2}{}}
\@writefile{toc}{\contentsline {paragraph}{\numberline {5.6.3.3}is\_obsolete}{15}{paragraph.5.6.3.3}\protected@file@percent }
\newlabel{help__funcs_8cpp_a8f8f80d37794cde9472343e4487ba3eb}{{5.6.3.3}{15}{\texorpdfstring {is\_obsolete}{is\_obsolete}}{paragraph.5.6.3.3}{}}
\@writefile{toc}{\contentsline {paragraph}{\numberline {5.6.3.4}name}{16}{paragraph.5.6.3.4}\protected@file@percent }
\newlabel{help__funcs_8cpp_a387b7c7901937d03ea946b9453163dd4}{{5.6.3.4}{16}{\texorpdfstring {name}{name}}{paragraph.5.6.3.4}{}}
\@writefile{toc}{\contentsline {paragraph}{\numberline {5.6.3.5}nmspcname}{16}{paragraph.5.6.3.5}\protected@file@percent }
\@writefile{toc}{\contentsline {subsection}{\numberline {5.7}src/parse/help\discretionary {\mbox  {\scriptsize  $\hookleftarrow  $}}{}{}\_\discretionary {\mbox  {\scriptsize  $\hookleftarrow  $}}{}{}funcs.h File Reference}{16}{subsection.5.7}\protected@file@percent }
\newlabel{help__funcs_8h}{{5.7}{16}{src/parse/help\+\_\+funcs.h File Reference}{subsection.5.7}{}}
\gdef \LT@vii {\LT@entry 
    {3}{68.82402pt}\LT@entry 
    {3}{340.38037pt}}
\@writefile{toc}{\contentsline {subsubsection}{\numberline {5.7.1}Macro Definition Documentation}{17}{subsubsection.5.7.1}\protected@file@percent }
\newlabel{help__funcs_8h_ab88c958220b99b1af340754cf3c86aba}{{5.7.1}{17}{Macro Definition Documentation}{subsubsection.5.7.1}{}}
\@writefile{toc}{\contentsline {paragraph}{\numberline {5.7.1.1}HELP\_FUNCS\_H}{17}{paragraph.5.7.1.1}\protected@file@percent }
\@writefile{toc}{\contentsline {subsubsection}{\numberline {5.7.2}Function Documentation}{17}{subsubsection.5.7.2}\protected@file@percent }
\newlabel{help__funcs_8h_a5d41fe9e9a9ff2237821ddf706f00ead}{{5.7.2}{17}{Function Documentation}{subsubsection.5.7.2}{}}
\@writefile{toc}{\contentsline {paragraph}{\numberline {5.7.2.1}cat\_cmp()}{17}{paragraph.5.7.2.1}\protected@file@percent }
\@writefile{toc}{\contentsline {subsection}{\numberline {5.8}src/parse/parse.cpp File Reference}{18}{subsection.5.8}\protected@file@percent }
\newlabel{parse_8cpp}{{5.8}{18}{src/parse/parse.cpp File Reference}{subsection.5.8}{}}
\@writefile{toc}{\contentsline {subsubsection}{\numberline {5.8.1}Function Documentation}{18}{subsubsection.5.8.1}\protected@file@percent }
\newlabel{parse_8cpp_aa2a7cc5ff9ff678caa94671484451a61}{{5.8.1}{18}{Function Documentation}{subsubsection.5.8.1}{}}
\gdef \LT@viii {\LT@entry 
    {3}{45.30728pt}\LT@entry 
    {3}{97.79922pt}}
\@writefile{toc}{\contentsline {paragraph}{\numberline {5.8.1.1}parse()}{19}{paragraph.5.8.1.1}\protected@file@percent }
\@writefile{toc}{\contentsline {subsection}{\numberline {5.9}src/parse/parse.h File Reference}{19}{subsection.5.9}\protected@file@percent }
\newlabel{parse_8h}{{5.9}{19}{src/parse/parse.h File Reference}{subsection.5.9}{}}
\@writefile{toc}{\contentsline {subsubsection}{\numberline {5.9.1}Function Documentation}{20}{subsubsection.5.9.1}\protected@file@percent }
\newlabel{parse_8h_aa2a7cc5ff9ff678caa94671484451a61}{{5.9.1}{20}{Function Documentation}{subsubsection.5.9.1}{}}
\@writefile{toc}{\contentsline {paragraph}{\numberline {5.9.1.1}parse()}{20}{paragraph.5.9.1.1}\protected@file@percent }
\gdef \LT@ix {\LT@entry 
    {3}{45.30728pt}\LT@entry 
    {3}{97.79922pt}}
\@writefile{toc}{\contentsline {subsection}{\numberline {5.10}src/structs/methods.cpp File Reference}{21}{subsection.5.10}\protected@file@percent }
\newlabel{methods_8cpp}{{5.10}{21}{src/structs/methods.cpp File Reference}{subsection.5.10}{}}
\@writefile{toc}{\contentsline {subsubsection}{\numberline {5.10.1}Function Documentation}{22}{subsubsection.5.10.1}\protected@file@percent }
\newlabel{methods_8cpp_a29d11fa9a8bd5bdae74ef2e6db673198}{{5.10.1}{22}{Function Documentation}{subsubsection.5.10.1}{}}
\@writefile{toc}{\contentsline {paragraph}{\numberline {5.10.1.1}bin\_find()}{22}{paragraph.5.10.1.1}\protected@file@percent }
\gdef \LT@x {\LT@entry 
    {3}{54.73018pt}\LT@entry 
    {3}{179.86804pt}}
\newlabel{methods_8cpp_aa470651f6269b819e0c05f1748111582}{{5.10.1.1}{23}{\texorpdfstring {bin\_find()}{bin\_find()}}{figure.caption.46}{}}
\@writefile{toc}{\contentsline {paragraph}{\numberline {5.10.1.2}find\_parents()}{23}{paragraph.5.10.1.2}\protected@file@percent }
\newlabel{methods_8cpp_a03ccc84d9fba5e06433d9f7e2897d4c6}{{5.10.1.2}{23}{\texorpdfstring {find\_parents()}{find\_parents()}}{figure.caption.48}{}}
\@writefile{toc}{\contentsline {paragraph}{\numberline {5.10.1.3}freenmspc()}{23}{paragraph.5.10.1.3}\protected@file@percent }
\gdef \LT@xi {\LT@entry 
    {3}{54.73018pt}\LT@entry 
    {3}{237.17902pt}}
\gdef \LT@xii {\LT@entry 
    {3}{61.17401pt}\LT@entry 
    {3}{283.12276pt}}
\newlabel{methods_8cpp_abb20c24fcd910f78b8c4c13d75a61c86}{{5.10.1.3}{24}{\texorpdfstring {freenmspc()}{freenmspc()}}{figure.caption.49}{}}
\@writefile{toc}{\contentsline {paragraph}{\numberline {5.10.1.4}freetree()}{24}{paragraph.5.10.1.4}\protected@file@percent }
\newlabel{methods_8cpp_ab64cd393bc94e66eb80a526a4ef586b2}{{5.10.1.4}{24}{\texorpdfstring {freetree()}{freetree()}}{figure.caption.50}{}}
\@writefile{toc}{\contentsline {paragraph}{\numberline {5.10.1.5}initialise\_branches()}{24}{paragraph.5.10.1.5}\protected@file@percent }
\gdef \LT@xiii {\LT@entry 
    {3}{49.31233pt}\LT@entry 
    {3}{173.46985pt}}
\newlabel{methods_8cpp_a674aa1a7ba901495dc50e50834eead33}{{5.10.1.5}{25}{\texorpdfstring {initialise\_branches()}{initialise\_branches()}}{figure.caption.51}{}}
\@writefile{toc}{\contentsline {paragraph}{\numberline {5.10.1.6}level()}{25}{paragraph.5.10.1.6}\protected@file@percent }
\newlabel{methods_8cpp_acdd799c792341e3d7761e1e68e096d70}{{5.10.1.6}{25}{\texorpdfstring {level()}{level()}}{figure.caption.52}{}}
\@writefile{toc}{\contentsline {paragraph}{\numberline {5.10.1.7}namespace\_insert()}{25}{paragraph.5.10.1.7}\protected@file@percent }
\@writefile{toc}{\contentsline {subsection}{\numberline {5.11}src/structs/methods.h File Reference}{26}{subsection.5.11}\protected@file@percent }
\newlabel{methods_8h}{{5.11}{26}{src/structs/methods.h File Reference}{subsection.5.11}{}}
\gdef \LT@xiv {\LT@entry 
    {3}{54.73018pt}\LT@entry 
    {3}{179.86804pt}}
\@writefile{toc}{\contentsline {subsubsection}{\numberline {5.11.1}Function Documentation}{27}{subsubsection.5.11.1}\protected@file@percent }
\newlabel{methods_8h_a03ccc84d9fba5e06433d9f7e2897d4c6}{{5.11.1}{27}{Function Documentation}{subsubsection.5.11.1}{}}
\@writefile{toc}{\contentsline {paragraph}{\numberline {5.11.1.1}freenmspc()}{27}{paragraph.5.11.1.1}\protected@file@percent }
\gdef \LT@xv {\LT@entry 
    {3}{54.73018pt}\LT@entry 
    {3}{237.17902pt}}
\gdef \LT@xvi {\LT@entry 
    {3}{61.17401pt}\LT@entry 
    {3}{283.12276pt}}
\newlabel{methods_8h_abb20c24fcd910f78b8c4c13d75a61c86}{{5.11.1.1}{28}{\texorpdfstring {freenmspc()}{freenmspc()}}{figure.caption.58}{}}
\@writefile{toc}{\contentsline {paragraph}{\numberline {5.11.1.2}freetree()}{28}{paragraph.5.11.1.2}\protected@file@percent }
\newlabel{methods_8h_ab64cd393bc94e66eb80a526a4ef586b2}{{5.11.1.2}{28}{\texorpdfstring {freetree()}{freetree()}}{figure.caption.59}{}}
\@writefile{toc}{\contentsline {paragraph}{\numberline {5.11.1.3}initialise\_branches()}{28}{paragraph.5.11.1.3}\protected@file@percent }
\gdef \LT@xvii {\LT@entry 
    {3}{49.31233pt}\LT@entry 
    {3}{173.46985pt}}
\newlabel{methods_8h_acdd799c792341e3d7761e1e68e096d70}{{5.11.1.3}{29}{\texorpdfstring {initialise\_branches()}{initialise\_branches()}}{figure.caption.60}{}}
\@writefile{toc}{\contentsline {paragraph}{\numberline {5.11.1.4}namespace\_insert()}{29}{paragraph.5.11.1.4}\protected@file@percent }
\@writefile{toc}{\contentsline {subsection}{\numberline {5.12}src/structs/structs.cpp File Reference}{30}{subsection.5.12}\protected@file@percent }
\newlabel{structs_8cpp}{{5.12}{30}{src/structs/structs.cpp File Reference}{subsection.5.12}{}}
\@writefile{toc}{\contentsline {subsubsection}{\numberline {5.12.1}Macro Definition Documentation}{31}{subsubsection.5.12.1}\protected@file@percent }
\newlabel{structs_8cpp_a2c35fff3bb8f22ea49b2cff2caaa740f}{{5.12.1}{31}{Macro Definition Documentation}{subsubsection.5.12.1}{}}
\@writefile{toc}{\contentsline {paragraph}{\numberline {5.12.1.1}STRUCTS\_H}{31}{paragraph.5.12.1.1}\protected@file@percent }
\@writefile{toc}{\contentsline {subsubsection}{\numberline {5.12.2}Typedef Documentation}{31}{subsubsection.5.12.2}\protected@file@percent }
\newlabel{structs_8cpp_a9f3cf029e54b2e1fa5202b28137bc46e}{{5.12.2}{31}{Typedef Documentation}{subsubsection.5.12.2}{}}
\@writefile{toc}{\contentsline {paragraph}{\numberline {5.12.2.1}namespace\_branch}{31}{paragraph.5.12.2.1}\protected@file@percent }
\newlabel{structs_8cpp_ac4f66888c9f99cb35cbcd54b2950049e}{{5.12.2.1}{31}{\texorpdfstring {namespace\_branch}{namespace\_branch}}{paragraph.5.12.2.1}{}}
\@writefile{toc}{\contentsline {paragraph}{\numberline {5.12.2.2}namespace\_tree}{31}{paragraph.5.12.2.2}\protected@file@percent }
\newlabel{structs_8cpp_a25ae998707fab59f962949fe1609c58f}{{5.12.2.2}{31}{\texorpdfstring {namespace\_tree}{namespace\_tree}}{paragraph.5.12.2.2}{}}
\@writefile{toc}{\contentsline {paragraph}{\numberline {5.12.2.3}term}{31}{paragraph.5.12.2.3}\protected@file@percent }
\newlabel{structs_8cpp_a3b28b0d5e4c903a9d378e9cafd1f3057}{{5.12.2.3}{31}{\texorpdfstring {term}{term}}{paragraph.5.12.2.3}{}}
\@writefile{toc}{\contentsline {paragraph}{\numberline {5.12.2.4}trmarr}{31}{paragraph.5.12.2.4}\protected@file@percent }
\@writefile{toc}{\contentsline {section}{Index}{33}{section*.68}\protected@file@percent }
